﻿[
	{
		"_id": "co-05",
		"_parentId": "course",
		"_type": "page",
		"_classes": "zh_cn",
		"height":"600",
		"title": "はじめに",
		"displayTitle": "はじめに",
		"pageBody": "カスタマージャーニーの各段階を考慮に入れて、コンバージョンの本当の要因は何かを理解します。",
		"body": "このセクションでは、人ベースのマルチタッチアトリビューション(MTA)の利点をご紹介するとともに、学習目標を設定し、動画「アトリビューションの実態」をご覧いただきます。",
		"_graphic": {
			"src": "course/en/images/co_1.jpg",
			"alt": "はじめに"
		},
		"linkText": "見る",
		"durationLabel": "所要時間: ",
		"duration": "5分",
		"_pageLevelProgress": {
			"_isEnabled": true
		}
	},
	{
		"_id": "co-10",
		"_parentId": "course",
		"_type": "page",
		"_classes": "zh_cn",
		"height":"600",
		"title": "アトリビューションとは",
		"displayTitle": "アトリビューションとは",
		"pageBody": "最も効果の高い広告やチャネルを把握できます。",
		"body": "このセクションでは、アトリビューションの定義、その重要性、ラストクリックのみを使ったモデルの限界、人ベースの効果測定の長所を説明します。",
		"_graphic": {
			"src": "course/en/images/co_2.jpg",
			"alt": "動画の管理"
		},
		"linkText": "見る",
		"durationLabel": "所要時間: ",
		"duration": "2分",
		"_pageLevelProgress": {
			"_isEnabled": true
		}
	},
	{
		"_id": "co-15",
		"_parentId": "course",
		"_type": "page",
		"_classes": "zh_cn",
		"height":"600",
		"title": "アトリビューションモデル",
		"displayTitle": "アトリビューションモデル",
		"pageBody": "アトリビューションモデルは、コンバージョンパス全体の広告タッチポイントそれぞれの貢献度を適切に評価するためのものです。",
		"body": "ここでは、よく使われるルールベースのモデルと統計モデルをいくつか詳しくご紹介します。",
		"_graphic": {
			"src": "course/en/images/co_3.jpg",
			"alt": "割り当てとトラフィック"
		},
		"linkText": "見る",
		"durationLabel": "所要時間: ",
		"duration": "7分",
		"_pageLevelProgress": {
			"_isEnabled": true
		}
	},
	{
		"_id": "co-20",
		"_parentId": "course",
		"_type": "page",
		"_classes": "zh_cn",
		"height":"600",
		"title": "データソース",
		"displayTitle": "データソース",
		"pageBody": "正確なMTAには、インプットと結果の2種類のデータが必要です。",
		"body": "このセクションでは、正確なアトリビューションに必要なデータソースの主な種類を説明します。ひとつはインプット(表示回数、クリック数、コストなど)、もうひとつは結果(購入やその他のコンバージョン)です。",
		"_graphic": {
			"src": "course/en/images/co_4a.jpg",
			"alt": "動画のエンゲージメント"
		},
		"linkText": "見る",
		"durationLabel": "所要時間: ",
		"duration": "4分",
		"_pageLevelProgress": {
			"_isEnabled": true
		}
	},
	{
		"_id": "co-25",
		"_parentId": "course",
		"_type": "page",
		"_classes": "zh_cn",
		"height":"600",
		"title": "課題",
		"displayTitle": "課題",
		"pageBody": "マルチタッチアトリビューションでより精度の高いインサイトを得られるなら、なぜこれが標準になっていないのでしょう。",
		"body": "ここでは、モバイル中心のマルチデバイス時代がアトリビューションに与える影響について取り上げ、アトリビューションの新しい標準に向けての課題を説明します。",
		"_graphic": {
			"src": "course/en/images/co_4.jpg",
			"alt": "動画のエンゲージメント"
		},
		"linkText": "見る",
		"durationLabel": "所要時間: ",
		"duration": "3分",
		"_pageLevelProgress": {
			"_isEnabled": true
		}
	},
	{
		"_id": "co-30",
		"_parentId": "course",
		"_type": "page",
		"_classes": "zh_cn",
		"height":"600",
		"title": " アトリビューションソリューション",
		"displayTitle": "アトリビューションソリューション",
		"pageBody": "ここまで、マルチタッチアトリビューションの定義や価値を見てきました。次は、適切なマーケティングタッチポイントに対してコンバージョンへの貢献度を振り分けるためのソリューションをいくつかご紹介します。",
		"body": "ここでは、Facebookが提供する人ベースのアトリビューションソリューションをいくつかご紹介します。",
		"_graphic": {
			"src": "course/en/images/co_5.jpg",
			"alt": "動画のエンゲージメント"
		},
		"linkText": "見る",
		"durationLabel": "所要時間: ",
		"duration": "4分",
		"_pageLevelProgress": {
			"_isEnabled": true
		}
	},
	{
		"_id": "co-35",
		"_parentId": "course",
		"_type": "page",
		"_classes": "zh_cn",
		"height":"600",
		"title": "インサイトを行動に移す",
		"displayTitle": "インサイトを行動に移す",
		"pageBody": "行動に移しやすいデータ: 貢献度の測定からメディア最適化へのシフト",
		"body": "コンバージョンパスのデータを使い、どの広告、パブリッシャー、チャネルが結果に結びついているかを判断することで、広告費を調整してパフォーマンスの高いところに力を入れることができます。",
		"_graphic": {
			"src": "course/en/images/co_6.jpg",
			"alt": "動画のエンゲージメント"
		},
		"linkText": "見る",
		"durationLabel": "所要時間: ",
		"duration": "4分",
		"_pageLevelProgress": {
			"_isEnabled": true
		}
    },
	{
		"_id": "co-40",
		"_parentId": "course",
		"_type": "page",
		"_classes": "zh_cn",
		"height":"600",
		"title": "まとめ",
		"displayTitle": "まとめ",
		"pageBody": "Facebookの人ベースのツールは、Facebook内外で広告が成果につながっているかを明確にし、マーケターが把握できるようにします。",
		"body": "このコースで学んだことをまとめ、よくある質問にお答えします。",
		"_graphic": {
			"src": "course/en/images/co_8.jpg",
			"alt": "動画のエンゲージメント"
		},
		"linkText": "見る",
		"durationLabel": "所要時間: ",
		"duration": "2分",
		"_pageLevelProgress": {
			"_isEnabled": true
		}
	}

]
